100195133,NP_001133634
100195133,XP_013984713
106579465,XP_014014875
106579465,XP_014014874
106579465,XP_014014873
100196460,NP_001134961
106570652,XP_013998597
106592678,XP_014039515
106592678,XP_014039574
106570897,XP_013998942
106571977,XP_014001076
106566158,XP_013989493
106566158,XP_013989492
106590260,XP_014036553
106590260,XP_014036550
106590260,XP_014036551
106611042,XP_014066342
106611042,XP_014066341
106581777,XP_014019546
106580447,XP_014017001
106580447,XP_014017002
106580202,XP_014016483
106580202,XP_014016484
106580202,XP_014016485
106580202,XP_014016486
106580202,XP_014016487
100196235,NP_001134736
106578367,XP_014012604
106581773,XP_014019535
106581773,XP_014019536
100196233,NP_001134734
106577031,XP_014010172
106611056,XP_014066377
106611056,XP_014066376
100195141,NP_001133642
100195141,XP_014033319
106580683,XP_014017516
106580683,XP_014017581
106566382,XP_013989824
106600163,XP_014046967
106571975,XP_014001072
100195147,XP_014015516
100195147,XP_014015517
100195147,NP_001133648
106604524,XP_014054683
106604524,XP_014054684
106593545,XP_014040358
106601014,XP_014048333
106569657,XP_013996694
106569657,XP_013996693
106605855,XP_014057306
106592454,XP_014039281
106590278,XP_014036587
106590278,XP_014036588
106566383,XP_013989827
106566383,XP_013989828
106566383,XP_013989826
106565054,XP_013987183
106601015,XP_014048336
106601015,XP_014048335
106601015,XP_014048334
106566385,XP_013989834
100380562,NP_001167318
106585920,XP_014028138
106599083,XP_014045614
106569416,XP_013996231
106582613,XP_014021319
106599099,XP_014045638
106608092,XP_014061274
106608092,XP_014061272
106608092,XP_014061273
106609182,XP_014063155
106580430,XP_014016960
106579442,XP_014014824
100286487,NP_001139898
100196687,NP_001135181
100196688,NP_001135182
106565287,XP_013987721
106565287,XP_013987732
106565287,XP_013987742
106565287,XP_013987714
106565287,XP_013987727
106565287,XP_013987749
106565287,XP_013987739
106565287,XP_013987709
106595731,XP_014042564
106569882,XP_013997070
106612591,XP_014069360
106612591,XP_014069361
106584842,XP_014025917
106575080,XP_014006718
106581512,XP_014019084
106581512,XP_014019083
106581512,XP_014019082
106560813,XP_013979614
106560813,XP_013979613
100195121,NP_001133622
100196692,NP_001135186
100196692,XP_014056746
100196450,NP_001134951
106560816,XP_013979618
106593318,XP_014040128
106571950,XP_014001025
106571950,XP_014001026
100196214,NP_001134715
100196215,NP_001134716
106594657,XP_014041528
106571948,XP_014001022
106566120,XP_013989448
106566120,XP_013989447
106571947,XP_014001019
106571947,XP_014001020
106571947,XP_014001021
106566363,XP_013989775
106566363,XP_013989773
106591143,XP_014037810
100380340,XP_014034383
100380340,NP_001167096
106601239,XP_014048760
106568307,XP_013994004
106581504,XP_014019110
106611031,XP_014066318
106599274,XP_014045898
106579029,XP_014013935
106579029,XP_014013934
106579029,XP_014013933
100196266,XP_014003093
100196266,NP_001134767
106611485,XP_014067199
106561977,XP_013981952
106561977,XP_013981950
106580495,XP_014017109
106580495,XP_014017108
106572871,XP_014002890
106593728,XP_014040582
106608078,XP_014061253
106608078,XP_014061249
106571543,XP_014000178
106571543,XP_014000187
106571543,XP_014000185
106571543,XP_014000182
106594812,XP_014041671
106572868,XP_014002886
106572868,XP_014002884
106572868,XP_014002885
106587295,XP_014031022
106587295,XP_014031023
106587295,XP_014031024
106587295,XP_014031025
106594821,XP_014041682
106590221,XP_014036472
106590221,XP_014036473
106590221,XP_014036470
106590221,XP_014036471
106600595,XP_014047562
106591313,XP_014038008
106591313,XP_014038003
106560893,XP_013979769
106560893,XP_013979770
106561984,XP_013981962
106561984,XP_013981963
106561984,XP_013981961
106579015,XP_014013889
106560636,XP_013979174
106580000,XP_014016005
106580000,XP_014016006
106599047,XP_014045576
106592407,XP_014039221
106590467,XP_014036999
106592895,XP_014039718
106571767,XP_014000691
106571767,XP_014000690
106571767,XP_014000689
106571767,XP_014000688
106572614,XP_014002428
106591566,XP_014038257
106593741,XP_014040593
106592890,XP_014039713
100380763,XP_014056409
106568363,XP_013994127
106590230,XP_014036494
100195398,NP_001133899
100195398,XP_014068140
100195398,XP_014068139
100195398,XP_014068138
100195398,XP_014068137
100195398,XP_014068136
100195398,XP_014068134
106611220,XP_014066671
106599053,XP_014045583
100196487,NP_001134988
106583703,XP_014023682
106583705,XP_014023684
106583705,XP_014023694
106583705,XP_014023685
106583705,XP_014023691
106583705,XP_014023690
106583705,XP_014023693
106583705,XP_014023692
106583705,XP_014023688
106583705,XP_014023687
106583705,XP_014023689
100195397,NP_001133898
106612554,XP_014069285
106612554,XP_014069289
106612554,XP_014069280
106613885,XP_014072078
106613885,XP_014072077
106591329,XP_014038019
106591329,XP_014038021
106611469,XP_014067179
106611469,XP_014067178
106611469,XP_014067177
106611469,XP_014067176
106611469,XP_014067175
106573701,XP_014004467
106573943,XP_014004893
106608299,XP_014061641
106608299,XP_014061642
106608299,XP_014061643
100196489,NP_001134990
106590001,XP_014035985
106568356,XP_013994111
100380798,NP_001167391
100380798,XP_014047649
106589258,XP_014034451
106589258,XP_014034450
106589258,XP_014034448
106589258,XP_014034449
106602756,XP_014051070
106567023,XP_013991273
106567023,XP_013991274
106583951,XP_014024141
106577060,XP_014010246
106560874,XP_013979735
106577298,XP_014010712
106577298,XP_014010714
106577298,XP_014010713
106599064,XP_014045597
106599064,XP_014045595
106599064,XP_014045596
106599064,XP_014045601
106599064,XP_014045599
106599064,XP_014045600
106599064,XP_014045603
106561705,XP_013981394
100195168,NP_001133669
106611232,XP_014066703
106611232,XP_014066702
100196494,NP_001134995
100196492,NP_001134993
100286671,XP_014007654
100286671,XP_014007645
106592432,XP_014039256
100380546,NP_001167302
100380546,XP_014014719
106602764,XP_014051081
100380782,XP_013986886
100380782,XP_013986887
106560865,XP_013979728
106579862,XP_014015635
106579862,XP_014015636
106579862,XP_014015637
106579862,XP_014015638
106579862,XP_014015634
106613069,XP_014070436
106575022,XP_014006637
106575022,XP_014006651
106575022,XP_014006630
106575022,XP_014006657
106575022,XP_014006645
106599478,XP_014046204
106578535,XP_014012937
106578535,XP_014012938
106578535,XP_014012935
106578535,XP_014012936
106578535,XP_014012934
106578535,XP_014012940
106578535,XP_014012941
106592840,XP_014039664
106592840,XP_014039662
106592840,XP_014039663
100306802,NP_001158813
100306805,NP_001158816
100306805,XP_014060216
106587015,XP_014030300
106587015,XP_014030301
106587015,XP_014030304
106587015,XP_014030302
106587015,XP_014030303
106606778,XP_014058610
106569828,XP_013996942
106569828,XP_013996941
106566799,XP_013990682
106566799,XP_013990683
106573080,XP_014003229
106573080,XP_014003230
100195300,NP_001133801
106599000,XP_014045510
106577431,XP_014010876
106575257,XP_014007129
100196879,XP_013998849
100196879,NP_001135373
106603271,XP_014052169
106603271,XP_014052179
106603271,XP_014052178
106603271,XP_014052177
106603271,XP_014052176
106603271,XP_014052175
106603271,XP_014052174
106603271,XP_014052173
106603271,XP_014052172
106603271,XP_014052171
106603271,XP_014052170
100196874,NP_001135368
100196874,XP_013986592
100196874,XP_013986593
106579858,XP_014015628
106579858,XP_014015629
106579858,XP_014015631
106561094,XP_013980193
106586173,XP_014028589
100306814,NP_001158825
100306814,XP_014062584
100306814,XP_014062583
106586175,XP_014028602
106566785,XP_013990649
106566785,XP_013990648
106566785,XP_013990647
106589688,XP_014035428
106606305,XP_014057937
100196629,XP_014018161
100196629,XP_014018160
100196629,NP_001135130
100196629,XP_014018162
106563274,XP_013984210
106563274,XP_013984209
106563274,XP_013984208
106563274,XP_013984207
106563274,XP_013984206
106563274,XP_013984215
106563274,XP_013984213
106563274,XP_013984212
106563274,XP_013984211
106587025,XP_014030341
106587025,XP_014030344
106587025,XP_014030342
106587025,XP_014030343
106588118,XP_014032267
106589447,XP_014034917
106589447,XP_014034916
106564367,XP_013985901
106565215,XP_013987558
106565215,XP_013987559
106565215,XP_013987561
106565215,XP_013987560
100195992,NP_001134493
106579841,XP_014015583
106579841,XP_014015584
106579841,XP_014015585
106573060,XP_014003188
106598166,XP_014044707
106599499,XP_014046762
106578992,XP_014013842
106583908,XP_014024037
106573069,XP_014003208
106573069,XP_014003209
106593947,XP_014040798
100196601,NP_001135102
106585093,XP_014026393
106601062,XP_014048451
106564352,XP_013985887
106566775,XP_013990635
106564354,XP_013985888
106567863,XP_013993165
106587277,XP_014030989
106568718,XP_013994772
106567627,XP_013992610
106573293,XP_014003697
106578501,XP_014012850
106578501,XP_014012851
106578501,XP_014012849
106578501,XP_014012852
106575476,XP_014007464
106567609,XP_013992592
106575231,XP_014007078
106575231,XP_014007077
106578507,XP_014012867
106590208,XP_014036448
106606760,XP_014058597
106577413,XP_014010855
106607850,XP_014060753
106607850,XP_014060754
106607850,XP_014060756
100136353,NP_001116998
100194675,XP_014026698
106591778,XP_014038467
106593955,XP_014040809
106587284,XP_014030997
106587284,XP_014030996
100136358,XP_014070450
100136358,XP_014070451
106562165,XP_013982329
106562165,XP_013982327
106562165,XP_013982325
106562165,XP_013982326
106565671,XP_013988501
106565671,XP_013988504
106565671,XP_013988503
106565671,XP_013988505
106565671,XP_013988498
106565671,XP_013988500
106565671,XP_013988499
106564349,XP_013985880
106567858,XP_013993162
106567858,XP_013993161
106567858,XP_013993160
106567858,XP_013993159
106563498,XP_013984624
106563498,XP_013984623
100196663,NP_001135164
100196663,XP_014009408
106576152,XP_014008560
106576152,XP_014008559
106577245,XP_014010646
106577008,XP_014010119
106599437,XP_014046149
100195336,NP_001133837
100195336,XP_014052068
100195336,XP_014052066
100195336,XP_014052065
100196665,NP_001135166
106585270,XP_014026788
106569863,XP_013997015
106590862,XP_014037515
106605645,XP_014056989
106563087,XP_013983792
106563087,XP_013983791
106563087,XP_013983790
106563087,XP_013983789
106568771,XP_013994912
106587214,XP_014030861
106587214,XP_014030860
106587214,XP_014030863
106587214,XP_014030864
106589637,XP_014035325
100196674,NP_001135175
106599441,XP_014046196
106599441,XP_014046157
106599441,XP_014046168
106599441,XP_014046183
100196673,NP_001135174
106576140,XP_014008529
106576140,XP_014008530
100196671,NP_001135172
100195109,NP_001133610
100195109,XP_014006701
100195109,XP_014006702
100195109,XP_014006700
106602385,XP_014050465
106601296,XP_014048878
106570841,XP_013998883
100195346,NP_001133847
106606505,XP_014058246
106606505,XP_014058237
106605416,XP_014056524
106605416,XP_014056525
106588790,XP_014033693
106588790,XP_014033702
106605417,XP_014056526
106605417,XP_014056527
106568761,XP_013994874
106604323,XP_014054323
106604323,XP_014054324
106604323,XP_014054325
106604323,XP_014054326
106604323,XP_014054327
106566584,XP_013990198
106566584,XP_013990197
106566584,XP_013990195
106566584,XP_013990199
106586135,XP_014028502
106606986,XP_014058994
106606986,XP_014058995
106587468,XP_014031355
106611092,XP_014066435
106613275,XP_014070840
106577463,XP_014010950
100196883,NP_001135377
106581960,XP_014020021
106581960,XP_014020020
100195559,XP_014001281
100196648,NP_001135149
106604536,XP_014054731
100136388,XP_014015466
106585052,XP_014026283
106602595,XP_014050797
106602595,XP_014050798
106602595,XP_014050795
106602595,XP_014050796
106602595,XP_014050799
106564150,XP_013985643
106586143,XP_014028515
106586143,XP_014028521
106586143,XP_014028520
106586143,XP_014028519
106586143,XP_014028518
106586143,XP_014028517
106586143,XP_014028516
106588324,XP_014032667
100306829,XP_014061049
100306829,NP_001158840
106585298,XP_014026850
106601268,XP_014048824
106601268,XP_014048823
106585057,XP_014026293
106589416,XP_014034868
106569847,XP_013996980
106569847,XP_013996991
106569847,XP_013996977
106569847,XP_013996984
106569847,XP_013996971
106597270,XP_014043953
106580620,XP_014017346
100196419,NP_001134920
106590406,XP_014036870
106590406,XP_014036871
106590406,XP_014036869
106590406,XP_014036868
106603694,XP_014053160
106577215,XP_014010596
100196657,XP_014001109
100196657,NP_001135158
100306833,NP_001158844
106571906,XP_014000939
106587249,XP_014030949
106587249,XP_014030950
106587249,XP_014030953
106587249,XP_014030954
106587249,XP_014030951
106587249,XP_014030952
106565239,XP_013987607
106581942,XP_014019948
106573363,XP_014003822
106573363,XP_014003824
106573363,XP_014003823
106575784,XP_014007942
106599510,XP_014046260
106573122,XP_014003314
106605166,XP_014056016
106611602,XP_014067466
100194964,NP_001133465
100195810,NP_001134311
106560290,XP_013978518
106560290,XP_013978517
106608436,XP_014061853
106608436,XP_014061846
106585354,XP_014026923
106585354,XP_014026922
106587773,XP_014031892
106586447,XP_014029216
106586204,XP_014028689
106586204,XP_014028692
106586204,XP_014028691
106586204,XP_014028690
106563327,XP_013984317
106563327,XP_013984316
106608203,XP_014061487
100195822,XP_014065436
100195822,XP_014065434
100195822,XP_014065435
100195822,NP_001134323
106575774,XP_014007929
106575774,XP_014007930
106575774,XP_014007931
106574201,XP_014005344
106575778,XP_014007935
100194731,XP_014059374
106560280,XP_013978493
106560280,XP_013978492
106560280,XP_013978495
106560280,XP_013978494
106586691,XP_014029710
100195817,XP_014038024
106608205,XP_014061488
106608205,XP_014061489
106608205,XP_014061490
106584033,XP_014024307
106584033,XP_014024304
106584033,XP_014024306
106584033,XP_014024305
106560282,XP_013978496
106562460,XP_013982830
106586211,XP_014028706
106561133,XP_013980248
106561133,XP_013980247
106586218,XP_014028724
106586218,XP_014028723
106586218,XP_014028726
106586218,XP_014028725
106565974,XP_013989174
106565974,XP_013989173
106565719,XP_013988607
106572255,XP_014001768
106572255,XP_014001769
106610734,XP_014065735
106610734,XP_014065733
106610734,XP_014065734
106610734,XP_014065731
106610734,XP_014065732
106574437,XP_014005809
106574437,XP_014005810
106561366,XP_013980714
106588647,XP_014033320
106588647,XP_014033315
106588647,XP_014033308
106561127,XP_013980245
106598450,XP_014044966
100194712,XP_014023933
106604067,XP_014053900
106581194,XP_014018570
106581194,XP_014018578
106582040,XP_014020207
106590971,XP_014037624
106584055,XP_014024347
106584055,XP_014024349
106588651,XP_014033313
106588651,XP_014033312
106584056,XP_014024351
106584056,XP_014024350
106584056,XP_014024352
106587569,XP_014031561
106594092,XP_014040939
106574493,XP_014005880
106573163,XP_014003348
106574497,XP_014005884
106574497,XP_014005885
106574497,XP_014005886
106572074,XP_014001351
106599952,XP_014046761
100196702,NP_001135196
100196702,XP_013990432
100194765,NP_001133266
100136402,NP_001117025
106565542,XP_013988270
106565542,XP_013988279
106562276,XP_013982522
106596444,XP_014043203
100136404,XP_014034876
106584221,XP_014024752
106584221,XP_014024749
106584221,XP_014024743
106584221,XP_014024754
106564456,XP_013986037
106587738,XP_014031819
106584228,XP_014024758
100194530,NP_001133088
106574006,XP_014004980
106574006,XP_014004981
106608880,XP_014062551
106608880,XP_014062552
106608880,XP_014062548
106608880,XP_014062549
106598629,XP_014045129
106606226,XP_014057843
106606226,XP_014057845
106606226,XP_014057844
106579929,XP_014015808
106609979,XP_014064539
100136417,NP_001117033
106606225,XP_014057842
106587986,XP_014032122
106587986,XP_014032123
106585564,XP_014027406
106585564,XP_014027405
106594031,XP_014040876
106564209,XP_013985733
106584236,XP_014024762
106576893,XP_014009906
106573384,XP_014003871
106573384,XP_014003873
106573384,XP_014003872
106572059,XP_014001304
106579923,XP_014015802
100194501,XP_013979849
100194501,NP_001133059
106578834,XP_014013511
106578834,XP_014013509
106578834,XP_014013508
106578834,XP_014013507
106578834,XP_014013506
106578834,XP_014013512
106598407,XP_014044920
106565521,XP_013988238
106565521,XP_013988230
106565521,XP_013988246
106596227,XP_014043012
106595379,XP_014042223
106596468,XP_014043224
106579919,XP_014015790
106608854,XP_014062508
106606436,XP_014058111
106563586,XP_013984778
106563586,XP_013984777
106587516,XP_014031453
106589938,XP_014035863
106589938,XP_014035864
106589938,XP_014035865
106566856,XP_013990826
100194756,XP_014001091
100194756,XP_014001092
100194756,XP_014001093
100194756,XP_014001094
100194756,NP_001133257
106574468,XP_014005841
106610702,XP_014065674
106577739,XP_014011538
100194994,NP_001133495
100194754,NP_001133255
106608869,XP_014062535
106608869,XP_014062550
106608869,XP_014062541
100194749,NP_001133250
106562243,XP_013982475
100194748,NP_001133249
106562242,XP_013982471
106562242,XP_013982472
106562242,XP_013982473
106562242,XP_013982474
106562484,XP_013982862
106562484,XP_013982863
106594056,XP_014040898
106565515,XP_013988214
106566847,XP_013990798
106566847,XP_013990796
106585103,XP_014026417
106585103,XP_014026418
106585586,XP_014027437
106595143,XP_014041993
106586678,XP_014029678
106565995,XP_013989218
100196069,XP_014038721
100196069,XP_014038742
100196069,XP_014038729
100196069,NP_001134570
100196069,XP_014038735
106610351,XP_014065144
106561539,XP_013981082
106562869,XP_013983399
106585509,XP_014027269
106585509,XP_014027268
106585509,XP_014027267
106585509,XP_014027266
106585509,XP_014027270
106610355,XP_014065147
100196066,NP_001134567
106575942,XP_014008183
106575942,XP_014008176
106611449,XP_014067130
106570014,XP_013997350
106570014,XP_013997349
106609123,XP_014063048
106609123,XP_014063047
100380605,NP_001167361
106573524,XP_014004124
106573524,XP_014004126
106573524,XP_014004125
100380855,XP_014008446
106595316,XP_014042168
106573758,XP_014004572
106601403,XP_014049069
106601403,XP_014049070
106569265,XP_013995931
106596883,XP_014043609
106595310,XP_014042160
106564811,XP_013986706
106564811,XP_013986707
106563967,XP_013985398
106560439,XP_013978822
106562859,XP_013983374
106560437,XP_013978816
106560437,XP_013978815
106560437,XP_013978814
106580289,XP_014016603
106580289,XP_014016604
106580289,XP_014016602
100286656,NP_001140068
100286656,XP_014047898
106571571,XP_014000261
106571571,XP_014000260
106611699,XP_014067654
106612788,XP_014069755
100286653,NP_001140065
106571572,XP_014000267
106571572,XP_014000266
106571572,XP_014000265
106571572,XP_014000264
106571572,XP_014000262
106571572,XP_014000269
106571572,XP_014000268
106573753,XP_014004566
106612549,XP_014069265
106612549,XP_014069266
106573756,XP_014004568
100380838,XP_013992240
100380838,XP_013992238
100380838,XP_013992239
100380838,NP_001167431
106607196,XP_014059380
106609375,XP_014063626
106609375,XP_014063627
106594472,XP_014041317
106583101,XP_014022392
106583101,XP_014022393
106583348,XP_014022915
106579292,XP_014014556
106579292,XP_014014555
106603838,XP_014053495
106603838,XP_014053494
100196287,NP_001134788
106607160,XP_014059275
106561757,XP_013981469
106561757,XP_013981468
106561999,XP_013981985
106580033,XP_014016067
106610336,XP_014065109
106569481,XP_013996348
106572895,XP_014002952
106598843,XP_014045328
106610339,XP_014065114
106572896,XP_014002953
106609344,XP_014063556
106569487,XP_013996353
106569487,XP_013996354
106569246,XP_013995903
106569246,XP_013995902
106583351,XP_014022930
106569486,XP_013996352
106568155,XP_013993706
106568155,XP_013993707
106596420,XP_014043187
106583597,XP_014023436
106596660,XP_014043409
106579285,XP_014014544
106579285,XP_014014552
106563945,XP_013985377
106583358,XP_014022966
106560433,XP_013978802
106560433,XP_013978801
106560433,XP_013978800
106562611,XP_013983042
106579281,XP_014014534
106584209,XP_014024715
106584209,XP_014024716
106561989,XP_013981977
106599940,XP_014046755
106606089,XP_014057685
106571312,XP_013999710
106597768,XP_014044385
106594018,XP_014040866
106567059,XP_013991408
106567059,XP_013991435
106567059,XP_013991512
106567059,XP_013991425
106567059,XP_013991416
106567059,XP_013991504
106567059,XP_013991380
106567059,XP_013991470
106567059,XP_013991399
106567059,XP_013991443
106567059,XP_013991389
106567059,XP_013991477
106567059,XP_013991522
106567059,XP_013991461
106567059,XP_013991451
106567059,XP_013991495
106567059,XP_013991485
106598849,XP_014045335
106573729,NP_001306947
106573729,XP_014004523
106601632,XP_014049450
106583364,XP_014022972
106560421,XP_013978788
106560421,XP_013978787
106560421,XP_013978786
106578183,XP_014012324
106560660,XP_013979219
106560661,XP_013979220
106588810,XP_014033728
106604909,XP_014055505
106582438,XP_014021025
106582438,XP_014021026
106562428,XP_013982789
106611886,XP_014067999
106611886,XP_014067998
106611886,XP_014067997
106611886,XP_014068000
106570052,XP_013997661
106570052,XP_013997591
106570052,XP_013997503
106570052,XP_013997731
106609325,XP_014063490
106569066,XP_013995487
106570297,XP_013997937
100194920,NP_001133421
100380811,NP_001167404
106600758,XP_014047842
106564857,XP_013986797
106564857,XP_013986798
106601844,XP_014049724
106585711,XP_014027707
106585711,XP_014027706
106561348,XP_013980663
106561348,XP_013980662
106561348,XP_013980664
106561105,XP_013980229
106561105,XP_013980230
100286615,NP_001140026
106609334,XP_014063507
106580082,XP_014016178
106609577,XP_014064006
106609577,XP_014064004
106609577,XP_014064005
106609577,XP_014064003
106574406,XP_014005752
106589086,XP_014034246
106593347,XP_014040154
106591168,XP_014037839
106561570,XP_013981152
106561570,XP_013981157
106595761,XP_014042592
100194926,NP_001133427
106584875,XP_014025953
106564841,XP_013986769
106563757,XP_013985074
106583547,XP_014023330
106583547,XP_014023329
106583547,XP_014023328
106574870,XP_014006473
106574870,XP_014006472
106568196,XP_013993798
106572454,XP_014002127
106572454,XP_014002128
106592019,XP_014038794
100380824,XP_014060223
100380824,NP_001167417
106596865,XP_014043591
106560230,XP_013978346
106560230,XP_013978344
106584640,XP_014025599
106583311,XP_014022832
106561320,XP_013980632
106562651,XP_013983090
106560477,XP_013978909
106565909,XP_013989070
106582245,XP_014020597
106582245,XP_014020596
106565907,XP_013989068
106565907,XP_013989067
106569274,XP_013995938
106570266,XP_013997873
100380817,XP_014013883
100380817,NP_001167410
106580061,XP_014016140
106580061,XP_014016138
106580061,XP_014016139
100194911,NP_001133412
106571115,XP_013999273
106571115,XP_013999274
106574626,XP_014006095
106575709,XP_014007834
106592277,XP_014039077
106608228,XP_014061571
106594695,XP_014041565
106560465,XP_013978893
106560465,XP_013978892
106560465,XP_013978891
106584410,XP_014025180
106564824,XP_013986731
106584654,XP_014025627
106584654,XP_014025625
106584654,XP_014025626
106600509,XP_014047396
106560225,XP_013978330
100196585,NP_001135086
106580570,XP_014017245
100195250,NP_001133751
106594739,XP_014041603
106571621,XP_014000390
106571621,XP_014000389
100195257,XP_013986587
100195257,NP_001133758
106569302,XP_013995983
106572705,XP_014002583
106572705,XP_014002584
106572705,XP_014002585
106571618,XP_014000372
106590143,XP_014036248
106590143,XP_014036252
106590143,XP_014036250
106590143,XP_014036251
106590143,XP_014036249
106572708,XP_014002589
106572708,XP_014002590
106572708,XP_014002588
106599190,XP_014045783
106560733,XP_013979391
106613353,XP_014070946
106613353,XP_014070945
106579337,XP_014014647
100195261,NP_001133762
100196119,XP_013987031
100196119,NP_001134620
106570522,XP_013998414
100195268,NP_001133769
106593658,XP_014040505
100196358,NP_001134859
106603558,XP_014052881
106594751,XP_014041702
106594751,XP_014041847
106594751,XP_014041762
106594751,XP_014041644
106594751,XP_014041798
106606828,XP_014058679
106577392,XP_014010835
106577392,XP_014010834
106613594,XP_014071493
106576060,XP_014008384
106576060,XP_014008383
106576060,XP_014008386
106576060,XP_014008385
106577390,XP_014010832
106577390,XP_014010831
106606829,XP_014058680
106580555,XP_014017215
106576053,XP_014008373
106576053,XP_014008374
106582972,XP_014022091
106582972,XP_014022092
106577388,XP_014010829
106577387,XP_014010828
106577387,XP_014010827
100195237,NP_001133738
106593429,XP_014040237
106593678,XP_014040525
106566255,XP_013989621
106604855,XP_014055392
106604855,XP_014055393
106603767,XP_014053304
106603767,XP_014053313
106594765,XP_014041628
106567100,XP_013991469
100380473,XP_014006462
100380473,XP_014006463
100380473,XP_014006466
100380473,XP_014006467
100380473,XP_014006464
100380473,XP_014006465
100380473,NP_001167229
106584721,XP_014025721
106576292,XP_014008857
106586902,XP_014030118
106586902,XP_014030117
106583638,XP_014023521
106583638,XP_014023523
106583638,XP_014023522
100195484,NP_001133985
106560932,XP_013979874
106560932,XP_013979873
106582961,XP_014022083
100195483,NP_001133984
100195480,XP_014058077
100195480,XP_014058076
100195480,XP_014058079
100195480,XP_014058078
100195480,XP_014058080
100195480,NP_001133981
100196339,XP_014047640
100196339,XP_014047642
100196339,XP_014047641
100196339,NP_001134840
106601351,XP_014048981
106601351,XP_014048980
106601351,XP_014048979
100196338,NP_001134839
106565155,XP_013987434
106568424,XP_013994219
106568424,XP_013994218
106601595,XP_014049401
106601595,XP_014049402
106601595,XP_014049397
106601595,XP_014049399
106601595,XP_014049400
106601595,XP_014049393
106601595,XP_014049394
106601595,XP_014049395
106601595,XP_014049396
106602441,XP_014050557
106602441,XP_014050558
106565393,XP_013987932
106565393,XP_013987933
106604861,XP_014055422
106604861,XP_014055412
106593443,XP_014040251
106592593,XP_014039407
106569991,XP_013997294
106583642,XP_014023528
106576281,XP_014008841
106576281,XP_014008840
106610063,XP_014064668
106610063,XP_014064669
106610063,XP_014064667
106579146,XP_014014220
106591425,XP_014038115
106592516,XP_014039335
106571658,XP_014000448
106592522,XP_014039341
106569342,XP_013996067
106569342,XP_013996068
106569342,XP_013996065
106569342,XP_013996066
106569342,XP_013996069
100380410,XP_014045827
100380410,NP_001167165
100380410,XP_014045825
100380410,XP_014045826
106610271,XP_014065004
106610271,XP_014065012
106613311,XP_014070880
106613311,XP_014070877
106613311,XP_014070879
106581456,XP_014018997
106583814,XP_014023880
106561845,XP_013981588
106561845,XP_013981593
106611136,XP_014066501
106612224,XP_014068672
100196154,XP_013978679
100196154,XP_013978678
100196154,NP_001134655
100196154,XP_013978680
100196154,XP_013978677
106590595,XP_014037188
106590595,XP_014037187
106590595,XP_014037189
106590595,XP_014037186
106590595,XP_014037185
106590595,XP_014037190
106603750,XP_014053282
106568486,XP_013994346
106579371,XP_014014686
106579131,XP_014014195
106579131,XP_014014194
106568009,XP_013993463
106568009,XP_013993464
106612430,XP_014069021
106598087,XP_014044640
106581202,XP_014018580
106581202,XP_014018579
106560745,XP_013979418
100195275,NP_001133776
100195273,XP_013979270
100195273,XP_013979272
100195273,NP_001133774
100195273,XP_013979269
106580110,XP_014016262
106580110,XP_014016263
106580110,XP_014016264
106580110,XP_014016265
106580110,XP_014016266
106580110,XP_014016267
106580110,XP_014016257
106580110,XP_014016268
106580110,XP_014016258
106580352,XP_014016771
106612435,XP_014069034
106613523,XP_014071363
106613523,XP_014071355
106613523,XP_014071348
106611107,XP_014066448
106570792,XP_013998803
106570792,XP_013998801
106572730,XP_014002643
100217349,NP_001136188
106570552,XP_013998475
106570552,XP_013998482
106591689,XP_014038388
106568233,XP_013993874
106568233,XP_013993873
106568233,XP_013993870
106568233,XP_013993872
106568233,XP_013993871
106589139,XP_014034317
106599171,XP_014045764
106611580,XP_014067413
106608184,XP_014061456
106582765,XP_014021650
106582765,XP_014021649
106582765,XP_014021645
106582765,XP_014021646
106582765,XP_014021647
106582765,XP_014021644
106613532,XP_014071364
106613532,XP_014071367
106613532,XP_014071365
106613532,XP_014071366
106580346,XP_014016754
106578021,XP_014012033
106612444,XP_014069043
106580584,XP_014017274
106580584,XP_014017275
106580581,XP_014017270
106580581,XP_014017271
106580581,XP_014017269
106610028,XP_014064617
106610028,XP_014064618
106612209,XP_014068651
106612209,XP_014068650
106591218,XP_014037904
106571633,XP_014000409
106596912,XP_014043634
106601552,XP_014049328
106590376,XP_014036820
106590376,XP_014036818
106590376,XP_014036819
106590376,XP_014036817
106589384,XP_014034756
106589384,XP_014034755
106589384,XP_014034754
106572957,XP_014003026
106588296,XP_014032605
106588296,XP_014032604
106565197,XP_013987530
106565197,XP_013987531
106602291,XP_014050301
106578898,XP_014013616
106578898,XP_014013615
106578898,XP_014013614
100195656,XP_013996141
100195656,NP_001134157
106579505,XP_014014927
100195654,XP_014066064
100195654,NP_001134155
106569943,XP_013997195
106566433,XP_013989940
106588225,XP_014032508
106588225,XP_014032498
106588225,XP_014032513
106606415,XP_014058064
106588465,XP_014033006
106588465,XP_014033005
106569706,XP_013996751
106581814,XP_014019661
106581814,XP_014019660
106581814,XP_014019659
106564257,XP_013985778
106565347,XP_013987821
100195420,NP_001133921
100194572,XP_014024186
100194572,XP_014024185
100194572,NP_001133130
106576224,XP_014008740
100194570,NP_001133128
106574285,XP_014005554
106574285,XP_014005555
106605574,XP_014056849
106604481,XP_014054607
106604481,XP_014054608
106590788,XP_014037421
106562063,XP_013982086
106603157,XP_014051941
106603157,XP_014051939
100195419,NP_001133920
106589322,XP_014034606
106589322,XP_014034605
106589322,XP_014034604
106573191,XP_014003442
106573191,XP_014003444
106573191,XP_014003443
106573191,XP_014003446
106573191,XP_014003445
106575120,XP_014006810
106576691,XP_014009473
106576691,XP_014009475
106574276,XP_014005545
106592979,XP_014039835
106607960,XP_014060960
106607960,XP_014060961
100136464,XP_014071113
106568830,XP_013995008
106568830,XP_013995006
100196719,NP_001135213
106605785,XP_014057198
100196717,NP_001135211
106580708,XP_014017513
106580708,XP_014017512
106580948,XP_014018014
106589338,XP_014034660
106564235,XP_013985761
100194550,NP_001133108
106602282,XP_014050288
106606400,XP_014058041
106602043,XP_014049995
106602043,XP_014049975
106602043,XP_014050003
106602043,XP_014049987
106602043,XP_014049981
106602043,XP_014050010
106602043,XP_014049969
100194556,NP_001133114
106604227,XP_014054158
106604227,XP_014054157
106606402,XP_014058044
100195695,NP_001134196
100195211,NP_001133712
106598461,XP_014044982
106576273,XP_014008832
106578699,XP_014013284
106578699,XP_014013283
106578699,XP_014013282
100196780,NP_001135274
100196780,XP_014035601
106578451,XP_014012731
106578451,XP_014012732
100196307,NP_001134808
106579306,XP_014014593
106579549,XP_014015036
106579549,XP_014015037
106591823,XP_014038561
106568897,XP_013995161
106585394,XP_014027021
106569985,XP_013997271
106589751,XP_014035541
106589751,XP_014035542
106589751,XP_014035540
106585157,XP_014026530
106585157,XP_014026531
106569508,XP_013996397
106569508,XP_013996398
106569508,XP_013996395
106569508,XP_013996396
106569508,XP_013996393
106569508,XP_013996394
106569508,XP_013996399
106588424,XP_014032874
106588424,XP_014032875
106588424,XP_014032876
106589759,XP_014035561
106574090,XP_014005110
106574090,XP_014005112
106574090,XP_014005111
106574090,XP_014005114
106574090,XP_014005113
106596290,XP_014043073
100195460,NP_001133961
100195460,XP_013982101
100195460,XP_013982102
100195460,XP_013982099
100195460,XP_013982100
106579772,XP_014015412
100196319,NP_001134820
106598238,XP_014044767
100195468,NP_001133969
106570960,XP_013999043
106563191,XP_013983986
106602021,XP_014049940
106602021,XP_014049941
106602020,XP_014049939
106590744,XP_014037378
106570954,XP_013999034
106570954,XP_013999033
106605538,XP_014056785
106586493,XP_014029335
106585165,XP_014026547
106585165,XP_014026548
106588431,XP_014032892
106589763,XP_014035565
106585167,XP_014026554
106585167,XP_014026555
106585167,XP_014026552
106585167,XP_014026553
106585167,XP_014026550
106588432,XP_014032893
106588432,XP_014032894
106568407,XP_013994196
106568407,XP_013994197
100195431,NP_001133932
100195431,XP_013979197
100195431,XP_013979196
100195431,XP_013979198
106576497,XP_014009185
106576497,XP_014009184
106605740,XP_014057118
106577348,XP_014010785
100196524,XP_013981063
106600053,XP_014046864
106600054,XP_014046870
106600054,XP_014046871
106600054,XP_014046872
106600054,XP_014046866
106600054,XP_014046865
106600054,XP_014046868
106585174,XP_014026565
106589533,XP_014035108
106565361,XP_013987854
106568872,XP_013995105
106568872,XP_013995104
100380278,XP_014015549
100380278,NP_001167034
106581832,XP_014019709
106581832,XP_014019710
106568878,XP_013995131
106599582,XP_014046346
106599582,XP_014046349
100194593,XP_014056152
100194593,XP_014056153
100194593,NP_001133151
100195201,NP_001133702
106575392,XP_014007373
106575392,XP_014007374
106599341,XP_014046007
106612046,XP_014068329
106612046,XP_014068330
106575151,XP_014006857
100194591,NP_001133149
106599105,XP_014045709
106592949,XP_014039779
106579756,XP_014015394
100194597,NP_001135793
100195687,XP_014071201
100195687,NP_001134188
106566687,XP_013990442
106586274,XP_014028874
106586274,XP_014028873
106586274,XP_014028872
106602007,XP_014049924
106568861,XP_013995082
106606844,XP_014058702
106589306,XP_014034577
106597168,XP_014043867
106589305,XP_014034576
106613373,XP_014071007
106581822,XP_014019674
106581822,XP_014019675
106575421,XP_014007395
106609886,XP_014064394
106609886,XP_014064392
106609886,XP_014064393
100195935,NP_001134436
106608798,XP_014062420
100306762,NP_001158773
106573004,XP_014003075
100194840,NP_001133341
106587651,XP_014031704
106587893,XP_014032027
106561021,XP_013980044
106562593,XP_013983017
106583055,XP_014022311
106562592,XP_013983016
106596366,XP_014043140
106566711,XP_013990495
106566713,XP_013990500
106566713,XP_013990498
106601926,XP_014049837
106565608,XP_013988386
106566938,XP_013991075
106566938,XP_013991076
106576980,XP_014010073
106608324,XP_014061681
106608324,XP_014061682
106608324,XP_014061683
106610886,XP_014066019
106610886,XP_014066017
106610886,XP_014066018
106610886,XP_014066020
106576984,XP_014010079
106599405,XP_014046087
100195700,NP_001134201
106605051,XP_014055774
106612829,XP_014069831
106565851,XP_013988920
106585241,XP_014026716
106585241,XP_014026717
106595288,XP_014042209
106595288,XP_014042166
106595288,XP_014042256
106595288,XP_014042300
106583067,XP_014022324
106562104,XP_013982169
106562104,XP_013982168
106586335,XP_014028988
100500786,XP_014013845
100500786,XP_014013844
100500786,XP_014013843
106596374,XP_014043148
106561496,XP_013981014
106561496,XP_013981015
106561496,XP_013981012
106561496,XP_013981013
106561496,XP_013981010
106561018,XP_013980041
106571041,XP_013999160
106571041,XP_013999159
106581086,XP_014018275
106606353,XP_014057982
106610853,XP_014065964
106598326,XP_014044848
106607442,XP_014059870
106607442,XP_014059868
106607442,XP_014059867
106610855,XP_014065962
106574312,XP_014005623
106574312,XP_014005624
106574312,XP_014005621
106574312,XP_014005622
106603082,XP_014051731
106611946,XP_014068124
106611946,XP_014068123
106611946,XP_014068122
100194818,NP_001133319
100194818,XP_014022822
100194818,XP_014022823
100194818,XP_014022824
100195905,NP_001134406
106607449,XP_014059884
106606117,XP_014057715
106587679,XP_014031739
106589612,XP_014035277
106589612,XP_014035278
106589612,XP_014035275
106589612,XP_014035276
106598572,XP_014045079
106599663,XP_014046423
106612801,XP_014069792
106576722,XP_014009541
106571277,XP_013999620
106569196,XP_013995781
106569196,XP_013995783
106573215,XP_014003535
106573215,XP_014003531
106605032,XP_014055736
106572128,XP_014001463
106572128,XP_014001464
106590602,XP_014037198
106583082,XP_014022352
106583082,XP_014022351
100306756,NP_001158767
106587682,XP_014031742
106576718,XP_014009534
106576718,XP_014009533
100195917,NP_001134418
100195917,XP_014021675
100195917,XP_014021676
100195917,XP_014021677
106608304,XP_014061652
106607699,XP_014060414
106607699,XP_014060415
106585265,XP_014026772
106569199,XP_013995787
100136513,NP_001117091
106584177,XP_014024601
106584177,XP_014024600
106587203,XP_014030813
106587203,XP_014030810
106587203,XP_014030811
106595066,XP_014041913
106565836,XP_013988881
106596151,XP_014042945
106563657,XP_013984899
106561237,XP_013980436
100194640,NP_001133197
106573043,XP_014003141
106574376,XP_014005706
106574376,XP_014005707
106607664,XP_014060331
106603064,XP_014051686
106603064,XP_014051684
106603064,XP_014051685
106579827,XP_014015510
100194645,NP_001133202
106576798,XP_014009696
106576798,XP_014009695
106576798,XP_014009694
106597658,XP_014044291
100194641,NP_001133198
106608992,XP_014062784
100194644,NP_001133201
100136522,NP_001117099
106564330,XP_013985853
106565661,XP_013988479
106565661,XP_013988480
106565661,XP_013988478
106565661,XP_013988477
100194639,NP_001133196
106593297,XP_014040110
106608997,XP_014062795
106562152,XP_013982305
106562152,XP_013982306
106562152,XP_013982303
106562152,XP_013982304
106562152,XP_013982302
106564571,XP_013986189
106562156,XP_013982313
106566997,XP_013991211
106566997,XP_013991210
106564335,XP_013985858
106568933,XP_013995251
106568933,XP_013995252
106568933,XP_013995248
106568933,XP_013995249
106597421,XP_014044090
100195505,NP_001134006
106575215,XP_014007050
106575215,XP_014007049
106575213,XP_014007048
106576545,XP_014009244
100195504,XP_014046400
100195504,XP_014046404
100195504,NP_001134005
100195504,XP_014046403
100195502,NP_001134003
106578966,XP_014013773
106578966,XP_014013772
100196830,NP_001135324
100196830,XP_014053719
106603074,XP_014051709
100136533,NP_001117108
100136533,XP_014013649
106605019,XP_014055738
106605019,XP_014055729
106605019,XP_014055720
106605019,XP_014055714
106594399,XP_014041240
106585202,XP_014026615
106585202,XP_014026614
106563477,XP_013984565
100136539,NP_001117111
106566507,XP_013990104
106589805,XP_014035630
106589805,XP_014035631
106589805,XP_014035632
106589805,XP_014035629
106589805,XP_014035633
106585206,XP_014026622
106585206,XP_014026623
106585206,XP_014026620
106585206,XP_014026619
106585206,XP_014026628
106585206,XP_014026618
106585206,XP_014026629
106585206,XP_014026626
106585206,XP_014026627
106585206,XP_014026624
106585206,XP_014026625
106575684,XP_014007792
106599850,XP_014046667
106597674,XP_014044309
106607642,XP_014060263
100306782,NP_001158793
100194624,NP_001133181
100194624,XP_014014714
100194624,XP_014014713
100194623,NP_001133180
100194865,XP_014002941
100194865,NP_001133366
106607641,XP_014060262
106607641,XP_014060260
106607641,XP_014060261
106576775,XP_014009645
106576775,XP_014009644
100194620,NP_001133177
100194862,NP_001133363
100194861,NP_001133362
100194861,XP_014066053
100194861,XP_014066054
100194622,NP_001133179
100194621,NP_001133178
106610807,XP_014065882
106610806,XP_014065879
106610806,XP_014065881
106610806,XP_014065880
100136543,NP_001117114
100136543,XP_014015160
100136543,XP_014015159
100194617,NP_001133174
100136546,NP_001117115
100194619,NP_001133176
106561284,XP_013980539
106561284,XP_013980538
106561284,XP_013980540
106583035,XP_014022264
106583035,XP_014022265
106583035,XP_014022266
106583035,XP_014022267
106583035,XP_014022268
106586788,XP_014029916
106586788,XP_014029917
106562377,XP_013982708
106564313,XP_013985830
106593072,XP_014039964
106593072,XP_014039908
106589814,XP_014035657
106588725,XP_014033476
106584129,XP_014024500
106584129,XP_014024502
106584129,XP_014024501
106573494,XP_014004086
106573494,XP_014004077
106573494,XP_014004068
100306790,NP_001158801
106605473,XP_014056656
106598776,XP_014045260
106572169,XP_014001559
106572169,XP_014001560
106572169,XP_014001561
100195966,XP_013983943
100195966,NP_001134467
100194636,NP_001133193
106597448,XP_014044121
100194631,NP_001133188
100194630,NP_001133187
106576769,XP_014009622
106605471,XP_014056652
106583282,XP_014022727
106583282,XP_014022729
106583282,XP_014022726
106583282,XP_014022730
106583282,XP_014022731
106607658,XP_014060321
106607658,XP_014060322
106607658,XP_014060323
100194869,NP_001133370
100194869,XP_013995969
100194869,XP_013995972
100194869,XP_013995970
100194869,XP_013995971
106566967,XP_013991141
106587404,XP_014031235
106594171,XP_014041012
106587406,XP_014031237
106613098,XP_014070506
106584139,XP_014024528
106584139,XP_014024529
106589825,XP_014035682
106589825,XP_014035683
106566966,XP_013991139
106609240,XP_014063269
106612410,XP_014068987
106612410,XP_014068988
106561658,XP_013981290
106572792,XP_014002745
106569142,XP_013995638
100380728,XP_013999023
100380727,XP_014003037
100286782,NP_001140151
100286782,XP_014019081
106600672,XP_014047667
106569148,XP_013995655
106600677,XP_014047679
106600677,XP_014047680
100196183,NP_001134684
106584300,XP_014024859
106562750,XP_013983229
106560331,XP_013978614
106560331,XP_013978613
106584548,XP_014025441
106611334,XP_014066935
106613511,XP_014071330
106613511,XP_014071331
106613511,XP_014071323
106613511,XP_014071324
106613511,XP_014071332
106613511,XP_014071327
106613511,XP_014071328
106613511,XP_014071325
106613511,XP_014071326
106613511,XP_014071329
106573636,XP_014004339
106573636,XP_014004340
106573636,XP_014004342
106573636,XP_014004341
106573878,XP_014004779
106607075,XP_014059139
106607075,XP_014059140
106594108,XP_014040952
106600683,XP_014048047
106603953,XP_014053692
106561891,XP_013981667
106584550,XP_014025456
106584550,XP_014025454
106584550,XP_014025455
106584550,XP_014025452
106584550,XP_014025453
106584550,XP_014025451
106562504,XP_013982895
106607280,XP_014059561
106607280,XP_014059562
106607281,XP_014059563
106607281,XP_014059564
106607281,XP_014059567
106607281,XP_014059565
106578076,XP_014012131
106578076,XP_014012132
106579167,XP_014014269
106579167,XP_014014268
106579167,XP_014014277
106579167,XP_014014276
106579167,XP_014014275
106579167,XP_014014274
106579167,XP_014014273
106579167,XP_014014271
106579167,XP_014014270
100195073,NP_001133574
106580394,XP_014016874
106573862,XP_014004748
106573862,XP_014004749
106609227,XP_014063247
106609227,XP_014063246
106611309,XP_014066833
106571444,XP_014000036
106571444,XP_014000035
106571444,XP_014000034
106571444,XP_014000033
106600892,XP_014048125
106603921,XP_014053639
106603921,XP_014053638
106601986,XP_014049904
106595213,XP_014042065
106609228,XP_014063248
106609228,XP_014063251
106609228,XP_014063250
106609228,XP_014063252
100196160,XP_013995485
100196160,NP_001134661
106593274,XP_014040089
106600414,XP_014047208
106600414,XP_014047207
106600414,XP_014047206
106561646,XP_013981278
106561646,XP_013981277
106561645,XP_013981273
106561645,XP_013981276
106561645,XP_013981274
106561645,XP_013981275
106600418,XP_014047217
106585658,XP_014027569
106585658,XP_014027568
106585658,XP_014027576
106585658,XP_014027575
106585658,XP_014027574
106585658,XP_014027573
106585658,XP_014027572
106585658,XP_014027571
106585658,XP_014027570
106582566,XP_014021254
106562956,XP_013983565
106613976,XP_014072343
106613976,XP_014072342
106613976,XP_014072341
106611553,XP_014067355
106611553,XP_014067353
106561629,XP_013981231
106568020,XP_013993489
106569594,XP_013996583
106598733,XP_014045224
106599823,XP_014046636
106608385,XP_014061772
106572524,XP_014002235
106567176,XP_013991657
106600424,XP_014047233
106600424,XP_014047232
106600424,XP_014047235
106600424,XP_014047234
106568267,XP_013993915
106583483,XP_014023189
106583483,XP_014023190
106609239,XP_014063268
106593044,XP_014039862
106596311,XP_014043096
106586750,XP_014029804
106586750,XP_014029805
106585664,XP_014027589
106585664,XP_014027588
106602847,XP_014051255
106587846,XP_014031974
106585827,XP_014027973
106582398,XP_014020946
106582398,XP_014020947
106573680,XP_014004427
106573680,XP_014004428
106573681,XP_014004430
106577801,XP_014011630
106577801,XP_014011631
106613946,XP_014072268
106613946,XP_014072267
106608358,XP_014061736
106609445,XP_014063770
106595626,XP_014042467
106609207,XP_014063204
106609449,XP_014063777
106562311,XP_013982581
106564733,XP_013986510
106582148,XP_014020408
106582148,XP_014020407
106582148,XP_014020406
106609699,XP_014064145
106609699,XP_014064144
106568086,XP_013993580
106568086,XP_013993571
106568086,XP_013993582
106568086,XP_013993581
106568086,XP_013993577
106568086,XP_013993576
106568086,XP_013993579
106568086,XP_013993578
106568086,XP_013993573
106568086,XP_013993584
106568086,XP_013993572
106568086,XP_013993583
106568086,XP_013993574
106570164,XP_013997674
106570164,XP_013997673
106570164,XP_013997675
106571255,XP_013999545
106571255,XP_013999546
106609451,XP_014063779
106609452,XP_014063780
106600886,XP_014048112
106600886,XP_014048111
100194806,XP_014006672
100194806,NP_001133307
106585600,XP_014027463
106585600,XP_014027462
106603918,XP_014053624
106562547,XP_013982964
106565810,XP_013988845
106561215,XP_013980403
106561215,XP_013980405
106561215,XP_013980404
106563634,XP_013984865
106582376,XP_014020908
106582376,XP_014020910
106582376,XP_014020909
106572574,XP_014002350
106572574,XP_014002351
106574753,XP_014006269
106612836,XP_014069892
106612836,XP_014069883
106612836,XP_014069898
106561681,XP_013981338
106584760,XP_014025782
106585850,XP_014028024
106585850,XP_014028032
106585850,XP_014028041
106585850,XP_014028050
106585610,XP_014027493
106601949,XP_014049865
100286717,NP_001140129
106570380,XP_013998118
106580183,XP_014016430
106612605,XP_014069398
106612605,XP_014069418
106612605,XP_014069408
106613934,XP_014072248
106576922,XP_014009924
106605075,XP_014055840
106605075,XP_014055831
106561670,XP_013981319
106561670,XP_013981318
106561670,XP_013981316
106561670,XP_013981320
106561670,XP_013981321
106583200,XP_014022582
100286709,XP_014015544
100286709,NP_001140121
106585868,XP_014028070
106585868,XP_014028062
106601716,XP_014049540
