o2,growth,source
64.7580790381339,86.50201543085893,berg1993
69.75136093527074,87.79189118058537,berg1993
90.5411882038425,96.14505561481029,berg1993
95.93672516726,100.20195863864916,berg1993
118.06075381269653,92.38845871483383,berg1993
122.3946920061502,100.27232557173132,hosfeld2008
128.03956062222102,96.45755128613575,berg1993
92.93809649134958,75.93866441344727,hosfeld2008
110.64507639244805,76.19852340254593,hosfeld2008
